[gd_scene load_steps=3 format=2]

[ext_resource path="res://game/bullets/LaserBeam.tscn" type="PackedScene" id=2]
[ext_resource path="res://game/enemies/EnemyBeamer.tscn" type="PackedScene" id=3]

[node name="EnemyBeamerG4F" instance=ExtResource( 3 )]
time_to_live = 12.0
speed = Vector2( -55, 0 )
rotation_speed = -45.0
start_position = Vector2( 1340, 140 )

[node name="LaserBeam2D" parent="Lasers" index="0"]
cast_time = 2.5
cool_down = 1.8
vector_cast = "Up"

[node name="LaserBeam2D2" parent="Lasers" index="1" instance=ExtResource( 2 )]
cast_time = 2.5
cool_down = 1.8
vector_cast = "Down"
