[gd_scene load_steps=6 format=2]

[ext_resource path="res://game/enemies/paths/patterns/Pattern78.tscn" type="PackedScene" id=1]
[ext_resource path="res://game/enemies/paths/patterns/Pattern75.tscn" type="PackedScene" id=2]
[ext_resource path="res://game/enemies/paths/patterns/Pattern77.tscn" type="PackedScene" id=3]
[ext_resource path="res://game/enemies/paths/patterns/Pattern76.tscn" type="PackedScene" id=4]
[ext_resource path="res://game/enemies/waves/EnemyWave.gd" type="Script" id=5]

[node name="Wave18" type="Node"]
script = ExtResource( 5 )
__meta__ = {
"_edit_horizontal_guides_": [ 540.852 ],
"_edit_vertical_guides_": [ 959.523 ]
}

[node name="Pattern75" parent="." instance=ExtResource( 2 )]

[node name="Pattern77" parent="." instance=ExtResource( 3 )]

[node name="Pattern78" parent="." instance=ExtResource( 1 )]

[node name="Pattern76" parent="." instance=ExtResource( 4 )]
