[gd_scene load_steps=4 format=2]

[ext_resource path="res://game/enemies/waves/EnemyWave.gd" type="Script" id=1]
[ext_resource path="res://game/enemies/paths/patterns/Pattern24.tscn" type="PackedScene" id=2]
[ext_resource path="res://game/enemies/paths/patterns/Pattern23.tscn" type="PackedScene" id=3]

[node name="Wave6" type="Node"]
script = ExtResource( 1 )

[node name="Pattern23" parent="." instance=ExtResource( 3 )]

[node name="Pattern24" parent="." instance=ExtResource( 2 )]
