[gd_resource type="ShaderMaterial" load_steps=3 format=2]

[ext_resource path="res://assets/ui/overlays/gameover/Pixels.png" type="Texture" id=1]

[sub_resource type="Shader" id=1]
code = "shader_type canvas_item;
render_mode unshaded;

uniform float cutoff : hint_range(0.0, 1.0);
uniform float smooth_size : hint_range(0.0, 1.0);
uniform sampler2D mask : hint_albedo;

void fragment(){
	float value = texture(mask, UV).r;
	float alpha = smoothstep(cutoff, cutoff + smooth_size, value * (1.0 - smooth_size) + smooth_size);
	COLOR = vec4(COLOR.rgb, alpha);
}"

[resource]
shader = SubResource( 1 )
shader_param/cutoff = 1.0
shader_param/smooth_size = 0.122
shader_param/mask = ExtResource( 1 )
