[gd_scene load_steps=3 format=2]

[ext_resource path="res://game/levels/GameLevelBase.tscn" type="PackedScene" id=1]
[ext_resource path="res://game/levels/waves/WavesLevelOne.tscn" type="PackedScene" id=2]

[node name="GameLevelOne" instance=ExtResource( 1 )]
send_waves = true
time_to_spawn_player = 3.0
level_name = "1"
next_level = "res://game/levels/GameLevelTwo.tscn"

[node name="StarCenter" parent="BackGrounds/StarCenterLayer" index="0"]
modulate = Color( 1, 1, 1, 0.588235 )

[node name="WavesLevelOne" parent="." index="4" instance=ExtResource( 2 )]
