[gd_resource type="ShaderMaterial" load_steps=2 format=2]

[ext_resource path="res://game/player/extras/emitting_light.shader" type="Shader" id=1]

[resource]
shader = ExtResource( 1 )
shader_param/width = 1.5
shader_param/outline_color = Color( 0.878431, 0.878431, 0.113725, 1 )
shader_param/saturation_color = 1.15
