[gd_scene load_steps=11 format=2]

[ext_resource path="res://game/enemies/EnemyBandit.tscn" type="PackedScene" id=1]
[ext_resource path="res://game/enemies/ShootPosition.gd" type="Script" id=2]
[ext_resource path="res://assets/enemies/g3/G3 - M.png" type="Texture" id=3]

[sub_resource type="CapsuleShape2D" id=1]
radius = 14.4523
height = 117.043

[sub_resource type="CapsuleShape2D" id=2]
radius = 27.7327

[sub_resource type="Gradient" id=3]
offsets = PoolRealArray( 0, 0.995516 )
colors = PoolColorArray( 1, 1, 1, 0.705882, 0, 0, 0, 0.188235 )

[sub_resource type="GradientTexture" id=4]
gradient = SubResource( 3 )

[sub_resource type="Curve" id=5]
_data = [ Vector2( 0, 1 ), 0.0, -0.836319, 0, 0, Vector2( 1, 0 ), -1.09339, 0.0, 0, 0 ]

[sub_resource type="CurveTexture" id=6]
curve = SubResource( 5 )

[sub_resource type="ParticlesMaterial" id=7]
resource_local_to_scene = true
flag_disable_z = true
direction = Vector3( 0, 100, 0 )
spread = 0.0
gravity = Vector3( 0, 0, 0 )
initial_velocity = 400.0
orbit_velocity = 0.0
orbit_velocity_random = 0.0
scale_curve = SubResource( 6 )
color_ramp = SubResource( 4 )

[node name="MedBanditG3B" instance=ExtResource( 1 )]
hitpoints = 70.0
bullet_speed = 340
shooting_rate = 0.9
indestructible_bullets = [ NodePath("ShootPositions/ShootPosition"), NodePath("ShootPositions/ShootPosition2") ]

[node name="Sprite" parent="." index="0"]
texture = ExtResource( 3 )

[node name="DamageCollider" parent="." index="1"]
position = Vector2( 0, -20.624 )
rotation = 1.5708
shape = SubResource( 1 )

[node name="DamageCollider2" type="CollisionShape2D" parent="." index="2" groups=[
"damage_collider",
]]
position = Vector2( 0, 7.54016 )
shape = SubResource( 2 )

[node name="ShootPosition" parent="ShootPositions" index="0"]
position = Vector2( -23, 19 )

[node name="ShootPosition2" type="Position2D" parent="ShootPositions" index="1"]
position = Vector2( 23, 19 )
script = ExtResource( 2 )

[node name="Motor" parent="." index="12"]
process_material = SubResource( 7 )

[editable path="ExplosionFire2"]
