[gd_scene load_steps=6 format=2]

[ext_resource path="res://assets/sounds/sfx/ui/gameover/gameover01.wav" type="AudioStream" id=1]
[ext_resource path="res://assets/themes/test_theme.tres" type="Theme" id=2]
[ext_resource path="res://game/ui/overlays/GameOver.gd" type="Script" id=3]
[ext_resource path="res://game/ui/overlays/gameover/trasitionRect.tscn" type="PackedScene" id=4]

[sub_resource type="Animation" id=1]
resource_name = "activated"
length = 4.6
tracks/0/type = "method"
tracks/0/path = NodePath(".")
tracks/0/interp = 1
tracks/0/loop_wrap = true
tracks/0/imported = false
tracks/0/enabled = true
tracks/0/keys = {
"times": PoolRealArray( 4.6 ),
"transitions": PoolRealArray( 1 ),
"values": [ {
"args": [  ],
"method": "reload"
} ]
}
tracks/1/type = "value"
tracks/1/path = NodePath("GameOverSFX:playing")
tracks/1/interp = 1
tracks/1/loop_wrap = true
tracks/1/imported = false
tracks/1/enabled = true
tracks/1/keys = {
"times": PoolRealArray( 0 ),
"transitions": PoolRealArray( 1 ),
"update": 1,
"values": [ true ]
}
tracks/2/type = "animation"
tracks/2/path = NodePath("TransitionRect/AnimationPlayer")
tracks/2/interp = 1
tracks/2/loop_wrap = true
tracks/2/imported = false
tracks/2/enabled = true
tracks/2/keys = {
"clips": PoolStringArray( "trasition_in" ),
"times": PoolRealArray( 0.6 )
}
tracks/3/type = "value"
tracks/3/path = NodePath("ColorRect/Label:modulate")
tracks/3/interp = 1
tracks/3/loop_wrap = true
tracks/3/imported = false
tracks/3/enabled = true
tracks/3/keys = {
"times": PoolRealArray( 0, 0.5 ),
"transitions": PoolRealArray( 1, 1 ),
"update": 0,
"values": [ Color( 1, 1, 1, 0 ), Color( 1, 1, 1, 1 ) ]
}

[node name="GameOver" type="Control"]
anchor_right = 1.0
anchor_bottom = 1.0
script = ExtResource( 3 )
__meta__ = {
"_edit_use_anchors_": false
}

[node name="GameOverSFX" type="AudioStreamPlayer" parent="."]
stream = ExtResource( 1 )
volume_db = -8.0
bus = "UI"

[node name="TransitionRect" parent="." instance=ExtResource( 4 )]
visible = true

[node name="ColorRect" type="ColorRect" parent="."]
anchor_left = 0.5
anchor_top = 0.5
anchor_right = 0.5
anchor_bottom = 0.5
margin_left = -511.5
margin_top = -153.5
margin_right = 511.5
margin_bottom = 153.5
color = Color( 0, 0, 0, 0 )
__meta__ = {
"_edit_use_anchors_": false
}

[node name="Label" type="Label" parent="ColorRect"]
modulate = Color( 1, 1, 1, 0 )
anchor_left = 0.5
anchor_top = 0.5
anchor_right = 0.5
anchor_bottom = 0.5
margin_left = -117.5
margin_top = -21.0
margin_right = 117.5
margin_bottom = 21.0
theme = ExtResource( 2 )
text = "Perdiste"
__meta__ = {
"_edit_use_anchors_": false
}

[node name="AnimationPlayer" type="AnimationPlayer" parent="."]
autoplay = "activated"
anims/activated = SubResource( 1 )

[editable path="TransitionRect"]
